EESchema Schematic File Version 2
LIBS:power
LIBS:device
LIBS:transistors
LIBS:conn
LIBS:linear
LIBS:regul
LIBS:74xx
LIBS:cmos4000
LIBS:adc-dac
LIBS:memory
LIBS:xilinx
LIBS:microcontrollers
LIBS:dsp
LIBS:microchip
LIBS:analog_switches
LIBS:motorola
LIBS:texas
LIBS:intel
LIBS:audio
LIBS:interface
LIBS:digital-audio
LIBS:philips
LIBS:display
LIBS:cypress
LIBS:siliconi
LIBS:opto
LIBS:atmel
LIBS:contrib
LIBS:valves
LIBS:my-displays
LIBS:my-microcontrollers
LIBS:my-misc-modules
LIBS:my-power-supplies
LIBS:esp8266-tft-display-cache
EELAYER 25 0
EELAYER END
$Descr A4 11693 8268
encoding utf-8
Sheet 1 1
Title ""
Date ""
Rev ""
Comp ""
Comment1 ""
Comment2 ""
Comment3 ""
Comment4 ""
$EndDescr
$Comp
L ili9341 U5
U 1 1 5CD7CA55
P 6700 2400
F 0 "U5" H 7350 2200 60  0000 C CNN
F 1 "ili9341" H 7450 2100 60  0000 C CNN
F 2 "myDisplays:ILI9342-DISPLAY" H 6700 2400 60  0001 C CNN
F 3 "" H 6700 2400 60  0000 C CNN
	1    6700 2400
	1    0    0    -1  
$EndComp
$Comp
L GND #PWR8
U 1 1 5CD7CAF7
P 6600 4200
F 0 "#PWR8" H 6600 3950 50  0001 C CNN
F 1 "GND" H 6600 4050 50  0000 C CNN
F 2 "" H 6600 4200 50  0000 C CNN
F 3 "" H 6600 4200 50  0000 C CNN
	1    6600 4200
	1    0    0    -1  
$EndComp
$Comp
L HDC2080 U2
U 1 1 5D9EE14F
P 4350 4650
F 0 "U2" H 4425 4525 60  0000 C CNN
F 1 "HDC2080" H 4450 4350 60  0000 C CNN
F 2 "myModules:CJMCU-2080" H 4850 4050 60  0001 C CNN
F 3 "" H 4850 4050 60  0000 C CNN
	1    4350 4650
	1    0    0    1   
$EndComp
$Comp
L SPEAKER SP1
U 1 1 5CD7DB40
P 6500 5100
F 0 "SP1" H 6400 5350 50  0000 C CNN
F 1 "BUZZER" H 6400 4850 50  0000 C CNN
F 2 "Buzzers_Beepers:MagneticBuzzer_ProSignal_ABT-410-RC" H 6500 5100 50  0001 C CNN
F 3 "" H 6500 5100 50  0000 C CNN
	1    6500 5100
	1    0    0    1   
$EndComp
$Comp
L +3.3V #PWR7
U 1 1 5E8E4B57
P 6500 2650
F 0 "#PWR7" H 6500 2500 50  0001 C CNN
F 1 "+3.3V" H 6500 2790 50  0000 C CNN
F 2 "" H 6500 2650 50  0000 C CNN
F 3 "" H 6500 2650 50  0000 C CNN
	1    6500 2650
	1    0    0    -1  
$EndComp
$Comp
L GND #PWR2
U 1 1 5E8E4B7B
P 3500 3600
F 0 "#PWR2" H 3500 3350 50  0001 C CNN
F 1 "GND" H 3500 3450 50  0000 C CNN
F 2 "" H 3500 3600 50  0000 C CNN
F 3 "" H 3500 3600 50  0000 C CNN
	1    3500 3600
	1    0    0    -1  
$EndComp
$Comp
L WEMOS-D1-MINI U1
U 1 1 5E8E4D7F
P 4350 2800
F 0 "U1" H 4300 3650 60  0000 C CNN
F 1 "WEMOS-D1-MINI" H 4350 1900 60  0000 C CNN
F 2 "" H 4350 2800 60  0000 C CNN
F 3 "" H 4350 2800 60  0000 C CNN
	1    4350 2800
	-1   0    0    -1  
$EndComp
$Comp
L +5V #PWR1
U 1 1 5E8E4E23
P 3100 3400
F 0 "#PWR1" H 3100 3250 50  0001 C CNN
F 1 "+5V" H 3100 3540 50  0000 C CNN
F 2 "" H 3100 3400 50  0000 C CNN
F 3 "" H 3100 3400 50  0000 C CNN
	1    3100 3400
	1    0    0    -1  
$EndComp
$Comp
L +3.3V #PWR4
U 1 1 5E8E4E72
P 5500 2600
F 0 "#PWR4" H 5500 2450 50  0001 C CNN
F 1 "+3.3V" H 5500 2740 50  0000 C CNN
F 2 "" H 5500 2600 50  0000 C CNN
F 3 "" H 5500 2600 50  0000 C CNN
	1    5500 2600
	1    0    0    -1  
$EndComp
Wire Wire Line
	6500 2650 6500 3000
Wire Wire Line
	6500 3000 6500 3600
Wire Wire Line
	6500 3600 6500 4050
Wire Wire Line
	6500 4050 6700 4050
Wire Wire Line
	6600 4200 6600 3900
Wire Wire Line
	6600 3900 6700 3900
Wire Wire Line
	6700 3000 6500 3000
Connection ~ 6500 3000
Wire Wire Line
	3600 4300 3700 4300
Wire Wire Line
	3500 4400 3700 4400
Wire Wire Line
	5500 2600 5500 3500
Wire Wire Line
	5500 3500 5200 3500
Wire Wire Line
	3100 3400 3100 3500
Wire Wire Line
	3100 3500 3600 3500
Wire Wire Line
	6700 3600 6500 3600
Connection ~ 6500 3600
Wire Wire Line
	6000 3300 6700 3300
Wire Wire Line
	6100 3150 6700 3150
Wire Wire Line
	5900 2850 6700 2850
Wire Wire Line
	6000 3850 3350 3850
Wire Wire Line
	3500 3600 3500 3300
Wire Wire Line
	3500 3300 3600 3300
Wire Wire Line
	6700 3750 5900 3750
Wire Wire Line
	5900 3750 5900 3300
Wire Wire Line
	5900 3300 5200 3300
Wire Wire Line
	6700 3450 6000 3450
Wire Wire Line
	6000 3450 6000 3850
Wire Wire Line
	3350 3850 3350 3100
Wire Wire Line
	3350 3100 3600 3100
Wire Wire Line
	5200 3100 6000 3100
Wire Wire Line
	6000 3100 6000 3300
Wire Wire Line
	6100 3150 6100 2700
Wire Wire Line
	6100 2700 5200 2700
Wire Wire Line
	5900 2850 5900 2900
Wire Wire Line
	5900 2900 5200 2900
Wire Wire Line
	5200 2500 5300 2500
Wire Wire Line
	5300 2500 5300 5500
Wire Wire Line
	5300 5500 5400 5500
$Comp
L R R1
U 1 1 5E8E5468
P 5550 5500
F 0 "R1" V 5630 5500 50  0000 C CNN
F 1 "1K" V 5550 5500 50  0000 C CNN
F 2 "" V 5480 5500 50  0000 C CNN
F 3 "" H 5550 5500 50  0000 C CNN
	1    5550 5500
	0    1    1    0   
$EndComp
$Comp
L Q_NPN_EBC Q1
U 1 1 5E8E552D
P 6000 5500
F 0 "Q1" H 6300 5550 50  0000 R CNN
F 1 "2N3904" H 6450 5450 50  0000 R CNN
F 2 "" H 6200 5600 50  0000 C CNN
F 3 "" H 6000 5500 50  0000 C CNN
	1    6000 5500
	1    0    0    -1  
$EndComp
Wire Wire Line
	5700 5500 5800 5500
$Comp
L GND #PWR6
U 1 1 5E8E55DD
P 6100 5800
F 0 "#PWR6" H 6100 5550 50  0001 C CNN
F 1 "GND" H 6100 5650 50  0000 C CNN
F 2 "" H 6100 5800 50  0000 C CNN
F 3 "" H 6100 5800 50  0000 C CNN
	1    6100 5800
	1    0    0    -1  
$EndComp
Wire Wire Line
	6100 5800 6100 5700
Wire Wire Line
	6200 5200 6100 5200
Wire Wire Line
	6100 5200 6100 5300
$Comp
L +5V #PWR5
U 1 1 5E8E56A7
P 6100 4900
F 0 "#PWR5" H 6100 4750 50  0001 C CNN
F 1 "+5V" H 6100 5040 50  0000 C CNN
F 2 "" H 6100 4900 50  0000 C CNN
F 3 "" H 6100 4900 50  0000 C CNN
	1    6100 4900
	1    0    0    -1  
$EndComp
Wire Wire Line
	6100 4900 6100 5000
Wire Wire Line
	6100 5000 6200 5000
$Comp
L +3.3V #PWR3
U 1 1 5E8E5715
P 3600 4200
F 0 "#PWR3" H 3600 4050 50  0001 C CNN
F 1 "+3.3V" H 3600 4340 50  0000 C CNN
F 2 "" H 3600 4200 50  0000 C CNN
F 3 "" H 3600 4200 50  0000 C CNN
	1    3600 4200
	1    0    0    -1  
$EndComp
$Comp
L SHT31D U3
U 1 1 5E8E57F6
P 4350 5350
F 0 "U3" H 4400 5200 60  0000 C CNN
F 1 "SHT31D" H 4450 5350 60  0000 C CNN
F 2 "" H 4850 4750 60  0000 C CNN
F 3 "" H 4850 4750 60  0000 C CNN
	1    4350 5350
	1    0    0    -1  
$EndComp
$Comp
L HTU21D U4
U 1 1 5E8E58A3
P 4350 6000
F 0 "U4" H 4400 5900 60  0000 C CNN
F 1 "HTU21D" H 4450 6050 60  0000 C CNN
F 2 "" H 4850 5400 60  0000 C CNN
F 3 "" H 4850 5400 60  0000 C CNN
	1    4350 6000
	1    0    0    -1  
$EndComp
Wire Wire Line
	3600 4200 3600 4300
Wire Wire Line
	3600 4300 3600 5200
Wire Wire Line
	3600 5200 3600 5850
Wire Wire Line
	3600 5200 3700 5200
Connection ~ 3600 4300
Wire Wire Line
	3600 5850 3700 5850
Connection ~ 3600 5200
Wire Wire Line
	3500 4400 3500 5300
Wire Wire Line
	3500 5300 3500 5950
Wire Wire Line
	3500 5300 3700 5300
Wire Wire Line
	3500 5950 3700 5950
Connection ~ 3500 5300
Wire Wire Line
	3600 2500 3300 2500
Wire Wire Line
	3300 2500 3300 4500
Wire Wire Line
	3300 4500 3300 5400
Wire Wire Line
	3300 5400 3300 6150
Wire Wire Line
	3300 4500 3700 4500
Wire Wire Line
	3600 2700 3250 2700
Wire Wire Line
	3250 2700 3250 4600
Wire Wire Line
	3250 4600 3250 5500
Wire Wire Line
	3250 5500 3250 6050
Wire Wire Line
	3250 4600 3700 4600
Wire Wire Line
	3300 5400 3700 5400
Connection ~ 3300 4500
Wire Wire Line
	3300 6150 3700 6150
Connection ~ 3300 5400
Wire Wire Line
	3250 6050 3700 6050
Connection ~ 3250 4600
Wire Wire Line
	3700 5500 3250 5500
Connection ~ 3250 5500
$EndSCHEMATC
